Lab2/Q1/mux4x1_tb.vcd
$date
  Thu Sep  7 22:13:16 2023
$end
$version
  GHDL v0
$end
$timescale
  1 fs
$end
$scope module standard $end
$upscope $end
$scope module std_logic_1164 $end
$upscope $end
$scope module mux4x1_tb $end
$var reg 1 ! a $end
$var reg 1 " b $end
$var reg 1 # c $end
$var reg 1 $ d $end
$var reg 1 % s1 $end
$var reg 1 & s0 $end
$var reg 1 ' z $end
$scope module dut_instance $end
$var reg 4 ( d[3:0] $end
$var reg 2 ) s[1:0] $end
$var reg 1 * y $end
$var reg 1 + not_s1 $end
$var reg 1 , not_s0 $end
$var reg 1 - temp1 $end
$var reg 1 . temp2 $end
$var reg 1 / temp3 $end
$var reg 1 0 temp4 $end
$var reg 1 1 temp5 $end
$var reg 1 2 temp6 $end
$var reg 1 3 term1 $end
$var reg 1 4 term2 $end
$var reg 1 5 term3 $end
$var reg 1 6 term4 $end
$scope module not1 $end
$var reg 1 7 x $end
$var reg 1 8 y $end
$upscope $end
$scope module not2 $end
$var reg 1 9 x $end
$var reg 1 : y $end
$upscope $end
$scope module and1 $end
$var reg 1 ; x1 $end
$var reg 1 < x2 $end
$var reg 1 = y $end
$upscope $end
$scope module and2 $end
$var reg 1 > x1 $end
$var reg 1 ? x2 $end
$var reg 1 @ y $end
$upscope $end
$scope module and3 $end
$var reg 1 A x1 $end
$var reg 1 B x2 $end
$var reg 1 C y $end
$upscope $end
$scope module and4 $end
$var reg 1 D x1 $end
$var reg 1 E x2 $end
$var reg 1 F y $end
$upscope $end
$scope module and5 $end
$var reg 1 G x1 $end
$var reg 1 H x2 $end
$var reg 1 I y $end
$upscope $end
$scope module and6 $end
$var reg 1 J x1 $end
$var reg 1 K x2 $end
$var reg 1 L y $end
$upscope $end
$scope module and7 $end
$var reg 1 M x1 $end
$var reg 1 N x2 $end
$var reg 1 O y $end
$upscope $end
$scope module and8 $end
$var reg 1 P x1 $end
$var reg 1 Q x2 $end
$var reg 1 R y $end
$upscope $end
$scope module or1 $end
$var reg 1 S x1 $end
$var reg 1 T x2 $end
$var reg 1 U y $end
$upscope $end
$scope module or2 $end
$var reg 1 V x1 $end
$var reg 1 W x2 $end
$var reg 1 X y $end
$upscope $end
$scope module or3 $end
$var reg 1 Y x1 $end
$var reg 1 Z x2 $end
$var reg 1 [ y $end
$upscope $end
$upscope $end
$upscope $end
$enddefinitions $end
#0
1!
0"
1#
0$
0%
0&
1'
b0101 (
b00 )
1*
1+
1,
1-
0.
0/
00
11
02
13
04
05
06
07
18
09
1:
1;
1<
1=
1>
1?
1@
0A
1B
0C
0D
0E
0F
1G
0H
0I
0J
1K
0L
0M
0N
0O
0P
0Q
0R
1S
0T
1U
0V
0W
0X
1Y
0Z
1[
#1000000
1&
0'
b01 )
0*
0,
01
03
19
0:
0?
0@
1E
0K
1Q
0S
0U
0Y
0[
#2000000
1%
0&
1'
b10 )
1*
0+
1,
0-
1/
01
12
03
15
17
08
09
1:
0<
0=
0>
1?
0@
0B
0E
1H
1I
1J
1K
1L
1N
0Q
0S
0U
1V
1X
0Y
1Z
1[
#3000000
1&
0'
b11 )
0*
0,
02
05
19
0:
0?
1E
0K
0L
1Q
0V
0X
0Z
0[
#4000000
1"
0#
0%
0&
1'
b0011 (
b00 )
1*
1+
1,
1-
1.
0/
11
13
07
18
09
1:
1<
1=
1>
1?
1@
1A
1B
1C
1D
0E
0G
0H
0I
0J
1K
0N
0Q
1S
1U
1Y
1[
#5000000
1&
b01 )
0,
03
14
19
0:
0?
0@
1E
1F
0K
1Q
0S
1T
#6000000
1%
0&
0'
b10 )
0*
0+
1,
0-
0.
01
03
04
17
08
09
1:
0<
0=
0>
1?
0@
0B
0C
0D
0E
0F
1H
1K
1N
0Q
0S
0T
0U
0Y
0[
#7000000
1&
b11 )
0,
19
0:
0?
1E
0K
1Q
#8000000
0"
1#
0%
0&
1'
b0101 (
b00 )
1*
1+
1,
1-
11
13
07
18
09
1:
1<
1=
1>
1?
1@
0A
1B
0E
1G
0H
1K
0N
0Q
1S
1U
1Y
1[
