Lab2/Q2/decoder4x16_tb.vcd
$date
  Sun Sep 10 19:37:26 2023
$end
$version
  GHDL v0
$end
$timescale
  1 fs
$end
$scope module standard $end
$upscope $end
$scope module std_logic_1164 $end
$upscope $end
$scope module decoder4x16_tb $end
$var reg 1 ! f1 $end
$var reg 1 " f2 $end
$var reg 1 # f3 $end
$var reg 1 $ f4 $end
$var reg 1 % e $end
$var reg 1 & g0 $end
$var reg 1 ' g1 $end
$var reg 1 ( g2 $end
$var reg 1 ) g3 $end
$var reg 1 * g4 $end
$var reg 1 + g5 $end
$var reg 1 , g6 $end
$var reg 1 - g7 $end
$var reg 1 . g8 $end
$var reg 1 / g9 $end
$var reg 1 0 g10 $end
$var reg 1 1 g11 $end
$var reg 1 2 g12 $end
$var reg 1 3 g13 $end
$var reg 1 4 g14 $end
$var reg 1 5 g15 $end
$scope module dut_instance $end
$var reg 1 6 a $end
$var reg 1 7 b $end
$var reg 1 8 c $end
$var reg 1 9 d $end
$var reg 1 : enable $end
$var reg 16 ; dec[15:0] $end
$var reg 4 < i[3:0] $end
$scope module decoder1 $end
$var reg 1 = d1 $end
$var reg 1 > d0 $end
$var reg 1 ? enable $end
$var reg 4 @ y[3:0] $end
$var reg 1 A not_d1 $end
$var reg 1 B not_d0 $end
$var reg 1 C temp0 $end
$var reg 1 D temp1 $end
$var reg 1 E temp2 $end
$var reg 1 F temp3 $end
$scope module not1 $end
$var reg 1 G x $end
$var reg 1 H y $end
$upscope $end
$scope module not2 $end
$var reg 1 I x $end
$var reg 1 J y $end
$upscope $end
$scope module and0 $end
$var reg 1 K x1 $end
$var reg 1 L x2 $end
$var reg 1 M y $end
$upscope $end
$scope module and_0 $end
$var reg 1 N x1 $end
$var reg 1 O x2 $end
$var reg 1 P y $end
$upscope $end
$scope module and1 $end
$var reg 1 Q x1 $end
$var reg 1 R x2 $end
$var reg 1 S y $end
$upscope $end
$scope module and_1 $end
$var reg 1 T x1 $end
$var reg 1 U x2 $end
$var reg 1 V y $end
$upscope $end
$scope module and2 $end
$var reg 1 W x1 $end
$var reg 1 X x2 $end
$var reg 1 Y y $end
$upscope $end
$scope module and_2 $end
$var reg 1 Z x1 $end
$var reg 1 [ x2 $end
$var reg 1 \ y $end
$upscope $end
$scope module and3 $end
$var reg 1 ] x1 $end
$var reg 1 ^ x2 $end
$var reg 1 _ y $end
$upscope $end
$scope module and_3 $end
$var reg 1 ` x1 $end
$var reg 1 a x2 $end
$var reg 1 b y $end
$upscope $end
$upscope $end
$scope module decoder2 $end
$var reg 1 c d1 $end
$var reg 1 d d0 $end
$var reg 1 e enable $end
$var reg 4 f y[3:0] $end
$var reg 1 g not_d1 $end
$var reg 1 h not_d0 $end
$var reg 1 i temp0 $end
$var reg 1 j temp1 $end
$var reg 1 k temp2 $end
$var reg 1 l temp3 $end
$scope module not1 $end
$var reg 1 m x $end
$var reg 1 n y $end
$upscope $end
$scope module not2 $end
$var reg 1 o x $end
$var reg 1 p y $end
$upscope $end
$scope module and0 $end
$var reg 1 q x1 $end
$var reg 1 r x2 $end
$var reg 1 s y $end
$upscope $end
$scope module and_0 $end
$var reg 1 t x1 $end
$var reg 1 u x2 $end
$var reg 1 v y $end
$upscope $end
$scope module and1 $end
$var reg 1 w x1 $end
$var reg 1 x x2 $end
$var reg 1 y y $end
$upscope $end
$scope module and_1 $end
$var reg 1 z x1 $end
$var reg 1 { x2 $end
$var reg 1 | y $end
$upscope $end
$scope module and2 $end
$var reg 1 } x1 $end
$var reg 1 !" x2 $end
$var reg 1 "" y $end
$upscope $end
$scope module and_2 $end
$var reg 1 #" x1 $end
$var reg 1 $" x2 $end
$var reg 1 %" y $end
$upscope $end
$scope module and3 $end
$var reg 1 &" x1 $end
$var reg 1 '" x2 $end
$var reg 1 (" y $end
$upscope $end
$scope module and_3 $end
$var reg 1 )" x1 $end
$var reg 1 *" x2 $end
$var reg 1 +" y $end
$upscope $end
$upscope $end
$scope module decoder3 $end
$var reg 1 ," d1 $end
$var reg 1 -" d0 $end
$var reg 1 ." enable $end
$var reg 4 /" y[3:0] $end
$var reg 1 0" not_d1 $end
$var reg 1 1" not_d0 $end
$var reg 1 2" temp0 $end
$var reg 1 3" temp1 $end
$var reg 1 4" temp2 $end
$var reg 1 5" temp3 $end
$scope module not1 $end
$var reg 1 6" x $end
$var reg 1 7" y $end
$upscope $end
$scope module not2 $end
$var reg 1 8" x $end
$var reg 1 9" y $end
$upscope $end
$scope module and0 $end
$var reg 1 :" x1 $end
$var reg 1 ;" x2 $end
$var reg 1 <" y $end
$upscope $end
$scope module and_0 $end
$var reg 1 =" x1 $end
$var reg 1 >" x2 $end
$var reg 1 ?" y $end
$upscope $end
$scope module and1 $end
$var reg 1 @" x1 $end
$var reg 1 A" x2 $end
$var reg 1 B" y $end
$upscope $end
$scope module and_1 $end
$var reg 1 C" x1 $end
$var reg 1 D" x2 $end
$var reg 1 E" y $end
$upscope $end
$scope module and2 $end
$var reg 1 F" x1 $end
$var reg 1 G" x2 $end
$var reg 1 H" y $end
$upscope $end
$scope module and_2 $end
$var reg 1 I" x1 $end
$var reg 1 J" x2 $end
$var reg 1 K" y $end
$upscope $end
$scope module and3 $end
$var reg 1 L" x1 $end
$var reg 1 M" x2 $end
$var reg 1 N" y $end
$upscope $end
$scope module and_3 $end
$var reg 1 O" x1 $end
$var reg 1 P" x2 $end
$var reg 1 Q" y $end
$upscope $end
$upscope $end
$scope module decoder4 $end
$var reg 1 R" d1 $end
$var reg 1 S" d0 $end
$var reg 1 T" enable $end
$var reg 4 U" y[3:0] $end
$var reg 1 V" not_d1 $end
$var reg 1 W" not_d0 $end
$var reg 1 X" temp0 $end
$var reg 1 Y" temp1 $end
$var reg 1 Z" temp2 $end
$var reg 1 [" temp3 $end
$scope module not1 $end
$var reg 1 \" x $end
$var reg 1 ]" y $end
$upscope $end
$scope module not2 $end
$var reg 1 ^" x $end
$var reg 1 _" y $end
$upscope $end
$scope module and0 $end
$var reg 1 `" x1 $end
$var reg 1 a" x2 $end
$var reg 1 b" y $end
$upscope $end
$scope module and_0 $end
$var reg 1 c" x1 $end
$var reg 1 d" x2 $end
$var reg 1 e" y $end
$upscope $end
$scope module and1 $end
$var reg 1 f" x1 $end
$var reg 1 g" x2 $end
$var reg 1 h" y $end
$upscope $end
$scope module and_1 $end
$var reg 1 i" x1 $end
$var reg 1 j" x2 $end
$var reg 1 k" y $end
$upscope $end
$scope module and2 $end
$var reg 1 l" x1 $end
$var reg 1 m" x2 $end
$var reg 1 n" y $end
$upscope $end
$scope module and_2 $end
$var reg 1 o" x1 $end
$var reg 1 p" x2 $end
$var reg 1 q" y $end
$upscope $end
$scope module and3 $end
$var reg 1 r" x1 $end
$var reg 1 s" x2 $end
$var reg 1 t" y $end
$upscope $end
$scope module and_3 $end
$var reg 1 u" x1 $end
$var reg 1 v" x2 $end
$var reg 1 w" y $end
$upscope $end
$upscope $end
$scope module decoder5 $end
$var reg 1 x" d1 $end
$var reg 1 y" d0 $end
$var reg 1 z" enable $end
$var reg 4 {" y[3:0] $end
$var reg 1 |" not_d1 $end
$var reg 1 }" not_d0 $end
$var reg 1 !# temp0 $end
$var reg 1 "# temp1 $end
$var reg 1 ## temp2 $end
$var reg 1 $# temp3 $end
$scope module not1 $end
$var reg 1 %# x $end
$var reg 1 &# y $end
$upscope $end
$scope module not2 $end
$var reg 1 '# x $end
$var reg 1 (# y $end
$upscope $end
$scope module and0 $end
$var reg 1 )# x1 $end
$var reg 1 *# x2 $end
$var reg 1 +# y $end
$upscope $end
$scope module and_0 $end
$var reg 1 ,# x1 $end
$var reg 1 -# x2 $end
$var reg 1 .# y $end
$upscope $end
$scope module and1 $end
$var reg 1 /# x1 $end
$var reg 1 0# x2 $end
$var reg 1 1# y $end
$upscope $end
$scope module and_1 $end
$var reg 1 2# x1 $end
$var reg 1 3# x2 $end
$var reg 1 4# y $end
$upscope $end
$scope module and2 $end
$var reg 1 5# x1 $end
$var reg 1 6# x2 $end
$var reg 1 7# y $end
$upscope $end
$scope module and_2 $end
$var reg 1 8# x1 $end
$var reg 1 9# x2 $end
$var reg 1 :# y $end
$upscope $end
$scope module and3 $end
$var reg 1 ;# x1 $end
$var reg 1 <# x2 $end
$var reg 1 =# y $end
$upscope $end
$scope module and_3 $end
$var reg 1 ># x1 $end
$var reg 1 ?# x2 $end
$var reg 1 @# y $end
$upscope $end
$upscope $end
$upscope $end
$upscope $end
$enddefinitions $end
#0
0!
0"
0#
0$
1%
1&
0'
0(
0)
0*
0+
0,
0-
0.
0/
00
01
02
03
04
05
06
07
08
09
1:
b0000000000000001 ;
b0001 <
0=
0>
1?
b0001 @
1A
1B
1C
0D
0E
0F
0G
1H
0I
1J
1K
1L
1M
1N
1O
1P
1Q
0R
0S
0T
1U
0V
0W
1X
0Y
0Z
1[
0\
0]
0^
0_
0`
1a
0b
0c
0d
1e
b0001 f
1g
1h
1i
0j
0k
0l
0m
1n
0o
1p
1q
1r
1s
1t
1u
1v
1w
0x
0y
0z
1{
0|
0}
1!"
0""
0#"
1$"
0%"
0&"
0'"
0("
0)"
1*"
0+"
0,"
0-"
0."
b0000 /"
10"
11"
12"
03"
04"
05"
06"
17"
08"
19"
1:"
1;"
1<"
1="
0>"
0?"
1@"
0A"
0B"
0C"
0D"
0E"
0F"
1G"
0H"
0I"
0J"
0K"
0L"
0M"
0N"
0O"
0P"
0Q"
0R"
0S"
0T"
b0000 U"
1V"
1W"
1X"
0Y"
0Z"
0["
0\"
1]"
0^"
1_"
1`"
1a"
1b"
1c"
0d"
0e"
1f"
0g"
0h"
0i"
0j"
0k"
0l"
1m"
0n"
0o"
0p"
0q"
0r"
0s"
0t"
0u"
0v"
0w"
0x"
0y"
0z"
b0000 {"
1|"
1}"
1!#
0"#
0##
0$#
0%#
1&#
0'#
1(#
1)#
1*#
1+#
1,#
0-#
0.#
1/#
00#
01#
02#
03#
04#
05#
16#
07#
08#
09#
0:#
0;#
0<#
0=#
0>#
0?#
0@#
#1000000
1$
0&
1'
19
b0000000000000010 ;
1d
b0010 f
0h
0i
1j
1o
0p
0r
0s
0t
0v
1x
1y
1z
1|
0!"
1'"
1-"
01"
02"
13"
18"
09"
0;"
0<"
0="
1A"
1B"
1C"
0G"
1M"
1S"
0W"
0X"
1Y"
1^"
0_"
0a"
0b"
0c"
1g"
1h"
1i"
0m"
1s"
1y"
0}"
0!#
1"#
1'#
0(#
0*#
0+#
0,#
10#
11#
12#
06#
1<#
#2000000
1#
0$
0'
1(
18
09
b0000000000000100 ;
1c
0d
b0100 f
0g
1h
0j
1k
1m
0n
0o
1p
0q
1r
0w
0x
0y
0z
0|
1}
1!"
1""
1#"
1%"
1&"
0'"
1,"
0-"
00"
11"
03"
14"
16"
07"
08"
19"
0:"
1;"
0@"
0A"
0B"
0C"
1F"
1G"
1H"
1I"
1L"
0M"
1R"
0S"
0V"
1W"
0Y"
1Z"
1\"
0]"
0^"
1_"
0`"
1a"
0f"
0g"
0h"
0i"
1l"
1m"
1n"
1o"
1r"
0s"
1x"
0y"
0|"
1}"
0"#
1##
1%#
0&#
0'#
1(#
0)#
1*#
0/#
00#
01#
02#
15#
16#
17#
18#
1;#
0<#
#3000000
1$
0(
1)
19
b0000000000001000 ;
1d
b1000 f
0h
0k
1l
1o
0p
0r
1x
0!"
0""
0#"
0%"
1'"
1("
1)"
1+"
1-"
01"
04"
15"
18"
09"
0;"
1A"
0G"
0H"
0I"
1M"
1N"
1O"
1S"
0W"
0Z"
1["
1^"
0_"
0a"
1g"
0m"
0n"
0o"
1s"
1t"
1u"
1y"
0}"
0##
1$#
1'#
0(#
0*#
10#
06#
07#
08#
1<#
1=#
1>#
#4000000
1"
0#
0$
0&
0)
1*
17
08
09
b0000000000010000 ;
b0010 <
1>
b0010 @
0B
0C
1D
1I
0J
0L
0M
0N
0P
1R
1S
1T
1V
0X
1^
0c
0d
0e
b0000 f
1g
1h
1i
0l
0m
1n
0o
1p
1q
1r
1s
1t
0u
0v
1w
0x
0{
0}
1!"
0$"
0&"
0'"
0("
0)"
0*"
0+"
0,"
0-"
1."
b0001 /"
10"
11"
12"
05"
06"
17"
08"
19"
1:"
1;"
1<"
1="
1>"
1?"
1@"
0A"
1D"
0F"
1G"
1J"
0L"
0M"
0N"
0O"
1P"
0R"
0S"
1V"
1W"
1X"
0["
0\"
1]"
0^"
1_"
1`"
1a"
1b"
1c"
1f"
0g"
0l"
1m"
0r"
0s"
0t"
0u"
0x"
0y"
1|"
1}"
1!#
0$#
0%#
1&#
0'#
1(#
1)#
1*#
1+#
1,#
1/#
00#
05#
16#
0;#
0<#
0=#
0>#
#5000000
1$
0*
1+
19
b0000000000100000 ;
1d
0h
0i
1j
1o
0p
0r
0s
0t
1x
1y
1z
0!"
1'"
1-"
b0010 /"
01"
02"
13"
18"
09"
0;"
0<"
0="
0?"
1A"
1B"
1C"
1E"
0G"
1M"
1S"
0W"
0X"
1Y"
1^"
0_"
0a"
0b"
0c"
1g"
1h"
1i"
0m"
1s"
1y"
0}"
0!#
1"#
1'#
0(#
0*#
0+#
0,#
10#
11#
12#
06#
1<#
#6000000
1#
0$
0+
1,
18
09
b0000000001000000 ;
1c
0d
0g
1h
0j
1k
1m
0n
0o
1p
0q
1r
0w
0x
0y
0z
1}
1!"
1""
1#"
1&"
0'"
1,"
0-"
b0100 /"
00"
11"
03"
14"
16"
07"
08"
19"
0:"
1;"
0@"
0A"
0B"
0C"
0E"
1F"
1G"
1H"
1I"
1K"
1L"
0M"
1R"
0S"
0V"
1W"
0Y"
1Z"
1\"
0]"
0^"
1_"
0`"
1a"
0f"
0g"
0h"
0i"
1l"
1m"
1n"
1o"
1r"
0s"
1x"
0y"
0|"
1}"
0"#
1##
1%#
0&#
0'#
1(#
0)#
1*#
0/#
00#
01#
02#
15#
16#
17#
18#
1;#
0<#
#7000000
1$
0,
1-
19
b0000000010000000 ;
1d
0h
0k
1l
1o
0p
0r
1x
0!"
0""
0#"
1'"
1("
1)"
1-"
b1000 /"
01"
04"
15"
18"
09"
0;"
1A"
0G"
0H"
0I"
0K"
1M"
1N"
1O"
1Q"
1S"
0W"
0Z"
1["
1^"
0_"
0a"
1g"
0m"
0n"
0o"
1s"
1t"
1u"
1y"
0}"
0##
1$#
1'#
0(#
0*#
10#
06#
07#
08#
1<#
1=#
1>#
#8000000
1!
0"
0#
0$
0-
1.
16
07
08
09
b0000000100000000 ;
b0100 <
1=
0>
b0100 @
0A
1B
0D
1E
1G
0H
0I
1J
0K
1L
0Q
0R
0S
0T
0V
1W
1X
1Y
1Z
1\
1]
0^
0c
0d
1g
1h
1i
0l
0m
1n
0o
1p
1q
1r
1s
1t
1w
0x
0}
1!"
0&"
0'"
0("
0)"
0,"
0-"
0."
b0000 /"
10"
11"
12"
05"
06"
17"
08"
19"
1:"
1;"
1<"
1="
0>"
1@"
0A"
0D"
0F"
1G"
0J"
0L"
0M"
0N"
0O"
0P"
0Q"
0R"
0S"
1T"
b0001 U"
1V"
1W"
1X"
0["
0\"
1]"
0^"
1_"
1`"
1a"
1b"
1c"
1d"
1e"
1f"
0g"
1j"
0l"
1m"
1p"
0r"
0s"
0t"
0u"
1v"
0x"
0y"
1|"
1}"
1!#
0$#
0%#
1&#
0'#
1(#
1)#
1*#
1+#
1,#
1/#
00#
05#
16#
0;#
0<#
0=#
0>#
#9000000
1$
0.
1/
19
b0000001000000000 ;
1d
0h
0i
1j
1o
0p
0r
0s
0t
1x
1y
1z
0!"
1'"
1-"
01"
02"
13"
18"
09"
0;"
0<"
0="
1A"
1B"
1C"
0G"
1M"
1S"
b0010 U"
0W"
0X"
1Y"
1^"
0_"
0a"
0b"
0c"
0e"
1g"
1h"
1i"
1k"
0m"
1s"
1y"
0}"
0!#
1"#
1'#
0(#
0*#
0+#
0,#
10#
11#
12#
06#
1<#
#10000000
1#
0$
0/
10
18
09
b0000010000000000 ;
1c
0d
0g
1h
0j
1k
1m
0n
0o
1p
0q
1r
0w
0x
0y
0z
1}
1!"
1""
1#"
1&"
0'"
1,"
0-"
00"
11"
03"
14"
16"
07"
08"
19"
0:"
1;"
0@"
0A"
0B"
0C"
1F"
1G"
1H"
1I"
1L"
0M"
1R"
0S"
b0100 U"
0V"
1W"
0Y"
1Z"
1\"
0]"
0^"
1_"
0`"
1a"
0f"
0g"
0h"
0i"
0k"
1l"
1m"
1n"
1o"
1q"
1r"
0s"
1x"
0y"
0|"
1}"
0"#
1##
1%#
0&#
0'#
1(#
0)#
1*#
0/#
00#
01#
02#
15#
16#
17#
18#
1;#
0<#
#11000000
1$
00
11
19
b0000100000000000 ;
1d
0h
0k
1l
1o
0p
0r
1x
0!"
0""
0#"
1'"
1("
1)"
1-"
01"
04"
15"
18"
09"
0;"
1A"
0G"
0H"
0I"
1M"
1N"
1O"
1S"
b1000 U"
0W"
0Z"
1["
1^"
0_"
0a"
1g"
0m"
0n"
0o"
0q"
1s"
1t"
1u"
1w"
1y"
0}"
0##
1$#
1'#
0(#
0*#
10#
06#
07#
08#
1<#
1=#
1>#
#12000000
1"
0#
0$
0.
01
12
17
08
09
b0001000000000000 ;
b1000 <
1>
b1000 @
0B
0E
1F
1I
0J
0L
1R
0X
0Y
0Z
0\
1^
1_
1`
1b
0c
0d
1g
1h
1i
0l
0m
1n
0o
1p
1q
1r
1s
1t
1w
0x
0}
1!"
0&"
0'"
0("
0)"
0,"
0-"
10"
11"
12"
05"
06"
17"
08"
19"
1:"
1;"
1<"
1="
1@"
0A"
0F"
1G"
0L"
0M"
0N"
0O"
0R"
0S"
0T"
b0000 U"
1V"
1W"
1X"
0["
0\"
1]"
0^"
1_"
1`"
1a"
1b"
1c"
0d"
0e"
1f"
0g"
0j"
0l"
1m"
0p"
0r"
0s"
0t"
0u"
0v"
0w"
0x"
0y"
1z"
b0001 {"
1|"
1}"
1!#
0$#
0%#
1&#
0'#
1(#
1)#
1*#
1+#
1,#
1-#
1.#
1/#
00#
13#
05#
16#
19#
0;#
0<#
0=#
0>#
1?#
#13000000
1$
02
13
19
b0010000000000000 ;
1d
0h
0i
1j
1o
0p
0r
0s
0t
1x
1y
1z
0!"
1'"
1-"
01"
02"
13"
18"
09"
0;"
0<"
0="
1A"
1B"
1C"
0G"
1M"
1S"
0W"
0X"
1Y"
1^"
0_"
0a"
0b"
0c"
1g"
1h"
1i"
0m"
1s"
1y"
b0010 {"
0}"
0!#
1"#
1'#
0(#
0*#
0+#
0,#
0.#
10#
11#
12#
14#
06#
1<#
#14000000
1#
0$
03
14
18
09
b0100000000000000 ;
1c
0d
0g
1h
0j
1k
1m
0n
0o
1p
0q
1r
0w
0x
0y
0z
1}
1!"
1""
1#"
1&"
0'"
1,"
0-"
00"
11"
03"
14"
16"
07"
08"
19"
0:"
1;"
0@"
0A"
0B"
0C"
1F"
1G"
1H"
1I"
1L"
0M"
1R"
0S"
0V"
1W"
0Y"
1Z"
1\"
0]"
0^"
1_"
0`"
1a"
0f"
0g"
0h"
0i"
1l"
1m"
1n"
1o"
1r"
0s"
1x"
0y"
b0100 {"
0|"
1}"
0"#
1##
1%#
0&#
0'#
1(#
0)#
1*#
0/#
00#
01#
02#
04#
15#
16#
17#
18#
1:#
1;#
0<#
#15000000
1$
04
15
19
b1000000000000000 ;
1d
0h
0k
1l
1o
0p
0r
1x
0!"
0""
0#"
1'"
1("
1)"
1-"
01"
04"
15"
18"
09"
0;"
1A"
0G"
0H"
0I"
1M"
1N"
1O"
1S"
0W"
0Z"
1["
1^"
0_"
0a"
1g"
0m"
0n"
0o"
1s"
1t"
1u"
1y"
b1000 {"
0}"
0##
1$#
1'#
0(#
0*#
10#
06#
07#
08#
0:#
1<#
1=#
1>#
1@#
#16000000
0!
0"
0#
0$
1&
05
06
07
08
09
b0000000000000001 ;
b0001 <
0=
0>
b0001 @
1A
1B
1C
0F
0G
1H
0I
1J
1K
1L
1M
1N
1P
1Q
0R
0W
1X
0]
0^
0_
0`
0b
0c
0d
1e
b0001 f
1g
1h
1i
0l
0m
1n
0o
1p
1q
1r
1s
1t
1u
1v
1w
0x
1{
0}
1!"
1$"
0&"
0'"
0("
0)"
1*"
0,"
0-"
10"
11"
12"
05"
06"
17"
08"
19"
1:"
1;"
1<"
1="
1@"
0A"
0F"
1G"
0L"
0M"
0N"
0O"
0R"
0S"
1V"
1W"
1X"
0["
0\"
1]"
0^"
1_"
1`"
1a"
1b"
1c"
1f"
0g"
0l"
1m"
0r"
0s"
0t"
0u"
0x"
0y"
0z"
b0000 {"
1|"
1}"
1!#
0$#
0%#
1&#
0'#
1(#
1)#
1*#
1+#
1,#
0-#
1/#
00#
03#
05#
16#
09#
0;#
0<#
0=#
0>#
0?#
0@#
